{
    "Star Wars": 
    [
        "Kuna Tanau",
        "Varlo Inzler",
        "Jaa Pavan",
        "Lestra Tarkin",
        "Davals Brimen",
        "Rona Syko",
        "Soont Dene",
        "Kenth Harend",
        "Rafan Dolpho",
        "Soont Ardan",
        "Verse Bibble",
        "Wini Kesyk",
        "Bela Dangon",
        "Scoria Hamne",
        "Carmya Arkik",
        "Ailyn Aran",
        "Amillia Vancil",
        "Mina Isak",
        "Wina Anres",
        "Jysyal Antik",
        "Tryn Dov'Dza",
        "Aqee Sei'Sei",
        "Trov Lya'Dov",
        "Gir Fey'Tey",
        "Gir Ov'Sei",
        "Kai Fey'Lya",
        "Kai Dov'Lya",
        "Lo An'Lya",
        "Utri Sei'Lya",
        "Pol Sei'Lya",
        "Leemy Vamma",
        "Loran Sobaaks",
        "Ensiss Bille",
        "Rana Tazi",
        "Hoola Keggle",
        "Lomy Soban",
        "Fela Trehalt",
        "Lomy Limpan",
        "Cadan Tazi",
        "Lensi Sobaaks",
        "Grida Attzamm",
        "Hulo Reeven",
        "Vikoob Kena",
        "Dreelo Chekka",
        "Suvo Tanwa",
        "Adoos Kena",
        "Neeshik Reeven",
        "Nacond Soammei",
        "Janneesh Tanu",
        "Dakoob Reeven",
        "Cheen Gutho",
        "Tarffahr Groke",
        "Tyvokk Gorugg",
        "Gralrrua Ugshur",
        "Raarka Gorrta",
        "Chanheen Bullik",
        "Raarkoo Kinfarg",
        "Harrua Ugog",
        "Rikoo Orgar",
        "Yundark Oguar",
        "Zena Tillis",
        "Anama Tille",
        "Miona Temarch",
        "Linda Cthedsard",
        "Sara Kiminn",
        "Lissa Arkit",
        "Reina Arar",
        "Drama Tillian",
        "Ersessa Thulie",
        "Jeele Vanda",
        "Porro Denau",
        "Gido Vikin",
        "Lorn Berik",
        "Jado Brastee",
        "Hugo Anres",
        "Jido Bitee",
        "Grona Shulie",
        "Khoan Darand",
        "Kesi Vale",
        "Vidar Tillo",
        "Jesmi Akol",
        "Thalu Oshti",
        "Cliko Okills",
        "Alin Meene",
        "Mina Camari",
        "Mona Judila",
        "Tima Imin",
        "Merai Kalu",
        "Halu Frokan",
        "Millu Jesmi",
        "Ki Ulak",
        "Bossk Coria",
        "Kreenk Ulion",
        "Nak Avick",
        "Slyssk Demai",
        "Ossk Gosia",
        "Krad Uurtoon",
        "On Farrfa",
        "Liss Stooina",
        "Cras Akan"
    ]
}